unknown
R1-1
R1-2
R1-2aP
R1-3P
R1-5
R1-5a
R1-5b
R1-5c
R1-6
R1-6a
R1-9
R1-9a
R1-10P
R2-1
R2-2P
R2-3P
R2-4P
R2-4
R2-4a
R2-5P
R2-5aP
R2-5bP
R2-5cP
R2-6P
R2-6aP
R2-6bP
R2-10
R2-11
R3-1
R3-2
R3-3
R3-4
R3-18
R3-27
R3-5
R3-5a
R3-5bP
R3-5cP
R3-5dP
R3-5eP
R3-5fP
R3-5gP
R3-6
R3-7
R3-8
R3-8a
R3-8b
R3-9a
R3-9b
R3-9cP
R3-9dP
R3-9e
R3-9f
R3-9g
R3-9h
R3-9i
R3-20
R3-23
R3-23a
R3-24
R3-24b
R3-25
R3-25b
R3-26a
R3-24a
R3-25a
R3-26
R3-33
R4-1
R4-2
R4-3
R4-5
R4-6
R4-7
R4-7a
R4-7b
R4-7c
R4-8
R4-8a
R4-8b
R4-8E
R4-9
R4-10
R4-12
R4-13
R4-14
R4-16
R4-17
R4-18
R5-1
R5-1a
R5-2
R5-2a
R5-3
R5-4
R5-5
R5-6
R5-7
R5-8
R5-10a
R5-10b
R5-10c
R5-11
R6-1
R6-2
R6-3
R6-3a
R6-4
R6-4a
R6-4b
R6-5P
R6-6
R6-7
R7-1
R7-2
R7-2a
R7-3
R7-4
R7-5
R7-6
R7-7
R7-8
R7-21
R7-21a
R7-22
R7-23
R7-23a
R7-107
R7-108
R7-8p
R7-20
R7-107a
R7-200
R7-200a
R7-201P
R7-201aP
R7-202P
R7-203
R8-1
R8-2
R8-3
R8-3a
R8-3bP
R8-3cP
R8-3dP
R8-3eP
R8-3fP
R8-3gP
R8-3hP
R8-4
R8-5
R8-6
R8-7
R9-1
R9-2
R9-3
R9-3a
R9-3bP
R9-4
R9-4a
R9-13
R9-14
R10-1
R10-2
R10-3
R10-3b
R10-3c
R10-3d
R10-4
R10-3a
R10-3e
R10-3f
R10-3g
R10-3h
R10-3i
R10-4a
R10-5
R10-6
R10-6a
R10-7
R10-8
R10-10
R10-11
R10-11a
R10-11b
R10-11c
R10-12
R10-13
R10-14
R10-14a
R10-15
R10-16
R10-17a
R10-18
R10-19P
R10-19aP
R10-20aP
R10-20aP
R10-23
R10-25
R10-27
R10-28
R10-29
R10-30
R10-31P
R10-32P
R11-1
R11-2
R11-3a
R11-3b
R11-4
R12-1
R12-2
R12-3
R12-4
R12-5
R13-1
R14-1
R14-2
R14-3
R14-4
R14-5
R16-4
R16-5
R16-6
R16-7
R16-8
R16-9
R16-10
R16-11
W1-1a
W1-2a
W1-6
W1-7
W1-8
W1-10
W1-10a
W1-10b
W1-10c
W1-10d
W1-10e
W1-11
W1-13
W1-15
W2-1
W2-2
W2-3
W2-4
W2-5
W2-6
W2-7
W2-8
W3-1
W3-2
W3-3
W3-4
W3-5
W3-5a
W3-6
W3-7
W3-8
W4-1
W4-2
W4-3
W4-4P
W4-4aP
W4-4bP
W4-5
W4-5P
W4-6
W5-1
W5-2
W5-3
W6-1
W6-2
W6-3
W7-1
W7-1a
W7-2P
W7-2bP
W7-3P
W7-3aP
W7-3bP
W7-4
W7-4b
W7-4c
W7-4dP
W7-4eP
W7-4fP
W7-6
W8-1
W8-2
W8-3
W8-4
W8-5
W8-5P
W8-5bP
W8-5cP
W8-5aP
W8-6
W8-7
W8-8
W8-9
W8-11
W8-12
W8-13
W8-14
W8-15
W8-15P
W8-16
W8-17
W8-17P
W8-18
W8-19
W8-21
W8-22
W8-23
W8-25
W9-1
W9-2
W9-7
W11-1
W11-2
W11-3
W11-4
W11-16
W11-17
W11-18
W11-19
W11-20
W11-21
W11-22
W11-5
W11-5a
W11-6
W11-7
W11-8
W11-9
W11-10
W11-11
W11-12P
W11-14
W11-15
W11-15a
W11-15P
W12-1
W12-2
W12-2a
W13-1P
W13-2
W13-3
W13-6
W13-7
W14-1
W14-2
W14-1a
W14-2a
W14-3
W15-1
W16-1P
W16-2P
W16-2aP
W16-3P
W16-3aP
W16-4P
W16-5P
W16-6P
W16-7P
W16-8P
W16-8aP
W16-9P
W16-10P
W16-10aP
W16-11P
W16-12P
W16-13P
W16-15P
W16-17P
W16-18P
W17-1
W19-1
W19-2
W19-3
W19-4
W19-5
W23-2
W25-1
W25-2
M1-1
M1-1
M1-2
M1-3
M1-2
M1-3
M1-4
M1-4
M1-5
M1-5
M1-6
M1-7
M2-1
M2-2
M3-1
M3-2
M3-3
M3-4
M4-1
M4-1a
M4-2
M4-3
M4-4
M4-5
M4-6
M4-7
M4-7a
M4-14
M5-1
M5-2
M5-3
M5-4
M5-5
M5-6
M6-1
M6-2
M6-2a
M6-3
M6-4
M6-5
M6-6
M6-7
D1-1
D1-1a
D1-1d
D1-1e
D1-2
D1-2a
D1-2d
D1-3
D1-3a
D1-3d
D2-1
D2-2
D2-3
D3-1
D3-1a
D3-2
D3-2
D3-2
D4-1
D4-2
D6-2
D6-4
D6-4a
D8-1
D8-2
D8-3
D13-1
D13-2
D13-3
D13-3a
D15-1
D17-1
D17-2
D17-7
E1-1C
E1-2
E1-5P
E1-5P
E1-5P
E1-5P
E1-5P
E1-5P
E1-5C
E1-5aP
E1-5bP
E1-5bP
E1-5bP
E1-5bP
E1-5bP
E1-5bP
E2-1A
E5-1
E5-1a
E5-1a
E5-1a
E5-1a
E5-1a
E5-1a
E5-1a
E5-1A
E5-1bP
E5-1bP
E5-1bP
E5-1bP
E5-1bP
E5-1bP
E5-1c
E6-1
E6-1B
E6-2
E6-2a
E11-1
E11-1d
E11-1a
E11-1b
E11-1c
E11-1e
E11-1f
E11-2
E13-1P
E13-2
M1-1
M1-1
M1-2
M1-3
M1-2
M1-3
M1-4
M1-4
M1-5
M1-5
M1-6
M1-7
M1-10
M1-10a
M2-1
M2-2
M3-1
M3-2
M3-3
M3-4
M4-1
M4-1a
M4-2
M4-3
M4-4
M4-5
M4-6
M4-7
M4-7a
M4-14
M5-1
M5-2
M5-3
M5-4
M5-5
M5-6
M6-1
M6-2
M6- 2a
M6-3
M6-4
M6-5
M6-6
M6-7
D1-1
D1-1a
D1-2
D1-2a
D1-3
D1-3a
D2-1
D2-2
D2-3
D3-1
D3-1a
D3-2
D3-2
D3-2
D4-2
D6-4
D6-4a
D8-1
D8-2
D8-3
D13-1
D13-2
D13-3
D13-3a
D15-1
D17-1
D17-2
D17-7
R3-28
R3-29P
R3-30P
R6-1R
W9-6
W9-6P
W9-6a
W9-6aP
W16-16P
M4-15
M4-16
M4-17
M4-18
M4-20
R3-10
R3-10a
R3-11 series
R3-11P
R3-12 series
R3-13
R3-13a
R3-14
R3-14a
R3-14b
R3-14c
R3-15
R3-15a
R3-15b
R3- 15c
R3-15d
R3-15e
R3-40
R3-42
R3-42b
R3-42a
R3-42c
R3-43
R3-44
R3-44a
R3-45
R3-45a
R3-48
R3-48a
W16-11P
E1-1
E1-1C
E1-5A
E2-1A
E3-1
E8-1
E8-1a
E8-2
E8-2a
E8-3
E8-4
E8-5
E8-6
D10-1
D10-1a
D10-2
D10-2a
D10-3
D10-3a
D10-4
D10-5
D14-1
D14-2
D14-3
I1-1
I-2
I-3
I-5
I-6
I-7
I-8
I-9
I-11
I-12
D5-1
D5-1a
D5-2
D5-2a
D5-3
D5-3B
D5-5
D5-6
D5-7
D5-8
D5-11
D5-12
D5-12P
D5-13
D5-14
D5-15
D5-16
D9-1
D9-2
D9-3
D9-3a
D9-4
D9-6
D9-6P
D9-7
D9-8
D9-9
D9-10
D9-11
D9-11a
D9-11b
D9-11bP
D9-11c
D9-12
D9-13
D9-13aP
D9-13bP
D9-13cP
D9-13dP
D9-14
D9-15
D9-16
D9-17P
D9-18
D9-18a
D9-18B
D9-18b
D9-18c
D9-20
D9-20aP
D9-21
D9-22
D12-1
D12-2
D12-3
D12-4
D12-5
D12-5a
EM-1
EM- EM-1a
EM-2
EM-3
EM-4
EM-5
EM-6a to EM
EM-7a to EM
VW-396
VW-397
VR-141
VR-132
VD-646
VD-102
VD-277
OM1-1
W11-3
VW-249P
VW-285
VW-317
W7-3AP
VD-066
M1-10A
S1-1
S4-3
R7-108m
M6-1L
R4-11
M6-1R
R3-8R
D11-1
R6-1L
E6-1A
R3-7R
R10-14b
W16-1
VR-038
VR-063L
VR-922L
VD-062B
VR-921L
R3-7L
M5-1R
M5-1L
VR-922R
VR-072
VR-941
W20-1
D9-2a
W16-8
VR-934L
VW-205
VW-060
W1-2
R2-5A
VR-017
VD-062AL
VR-921R
OM3R
OM3L
D1-1A
VR-932
VR-644